{
   "abstract" : "an implementation of Reactive Extensions / rxjs for Perl",
   "author" : [
      "Alexander Karelas <karjala@cpan.org>"
   ],
   "dynamic_config" : 0,
   "generated_by" : "Minilla/v3.1.23, CPAN::Meta::Converter version 2.150010",
   "license" : [
      "perl_5"
   ],
   "meta-spec" : {
      "url" : "http://search.cpan.org/perldoc?CPAN::Meta::Spec",
      "version" : 2
   },
   "name" : "RxPerl",
   "no_index" : {
      "directory" : [
         "t",
         "xt",
         "inc",
         "share",
         "eg",
         "examples",
         "author",
         "builder"
      ]
   },
   "prereqs" : {
      "configure" : {
         "requires" : {
            "Module::Build::Tiny" : "0.035"
         }
      },
      "develop" : {
         "requires" : {
            "Test::CPAN::Meta" : "0",
            "Test::MinimumVersion::Fast" : "0.04",
            "Test::PAUSE::Permissions" : "0.07",
            "Test::Pod" : "1.41",
            "Test::Spellunker" : "v0.2.7"
         }
      },
      "runtime" : {
         "requires" : {
            "Hash::Ordered" : "0.006",
            "Sub::Util" : "1.41",
            "parent" : "0",
            "perl" : "5.010"
         }
      },
      "test" : {
         "requires" : {
            "Mojolicious" : "8.15",
            "Test2::V0" : "0"
         }
      }
   },
   "release_status" : "unstable",
   "resources" : {
      "bugtracker" : {
         "web" : "https://gitlab.com/karjala/rxperl/issues"
      },
      "homepage" : "https://gitlab.com/karjala/rxperl",
      "repository" : {
         "type" : "git",
         "url" : "https://gitlab.com/karjala/rxperl.git",
         "web" : "https://gitlab.com/karjala/rxperl"
      }
   },
   "version" : "v6.29.8",
   "x_authority" : "cpan:KARJALA",
   "x_contributors" : [
      "Alexander Karelas <alex.karelas@gmail.com>",
      "Gabor Szabo <gabor@szabgab.com>"
   ],
   "x_serialization_backend" : "JSON::PP version 4.16",
   "x_static_install" : 1
}
